<?xml version="1.0" encoding="UTF-8" standalone="no"?><!DOCTYPE svg PUBLIC "-//W3C//DTD SVG 1.1//EN" "http://www.w3.org/Graphics/SVG/1.1/DTD/svg11.dtd"><!-- Generated by graphviz version 2.40.1 (20161225.0304)
 --><!-- Title: arbre Pages: 1 --><svg xmlns="http://www.w3.org/2000/svg" xmlns:xlink="http://www.w3.org/1999/xlink" width="422pt" height="222pt" viewBox="0.00 0.00 422.00 221.60">
<g id="graph0" class="graph" transform="scale(1 1) rotate(0) translate(4 217.6)">
<title>arbre</title>
<polygon fill="#ffffff" stroke="transparent" points="-4,4 -4,-217.6 418,-217.6 418,4 -4,4"/>
<!-- 1 -->
<g id="node1" class="node">
<title>1</title>
<ellipse fill="none" stroke="#000000" cx="199" cy="-195.6" rx="27" ry="18"/>
</g>
<!-- 2 -->
<g id="node2" class="node">
<title>2</title>
<ellipse fill="none" stroke="#000000" cx="99" cy="-106.8" rx="30.1583" ry="18"/>
<text text-anchor="middle" x="99" y="-102.6" font-family="Times,serif" font-size="14.00" fill="#000000">A 15</text>
</g>
<!-- 1&#45;&gt;2 -->
<g id="edge1" class="edge">
<title>1-&gt;2</title>
<path fill="none" stroke="#000000" d="M182.487,-180.9365C164.0696,-164.5818 134.4334,-138.2648 115.8717,-121.7821"/>
<text text-anchor="middle" x="166.9453" y="-147" font-family="Times,serif" font-size="14.00" fill="#000000">1/6</text>
</g>
<!-- 3 -->
<g id="node3" class="node">
<title>3</title>
<ellipse fill="none" stroke="#000000" cx="199" cy="-106.8" rx="27" ry="18"/>
<text text-anchor="middle" x="199" y="-102.6" font-family="Times,serif" font-size="14.00" fill="#000000">A 6</text>
</g>
<!-- 1&#45;&gt;3 -->
<g id="edge2" class="edge">
<title>1-&gt;3</title>
<path fill="none" stroke="#000000" d="M199,-177.2006C199,-161.8587 199,-140.122 199,-124.872"/>
<text text-anchor="middle" x="207.9453" y="-147" font-family="Times,serif" font-size="14.00" fill="#000000">1/3</text>
</g>
<!-- 4 -->
<g id="node4" class="node">
<title>4</title>
<ellipse fill="none" stroke="#000000" cx="315" cy="-106.8" rx="33.0889" ry="18"/>
<text text-anchor="middle" x="315" y="-102.6" font-family="Times,serif" font-size="14.00" fill="#000000">A -12</text>
</g>
<!-- 1&#45;&gt;4 -->
<g id="edge3" class="edge">
<title>1-&gt;4</title>
<path fill="none" stroke="#000000" d="M216.8708,-181.9196C238.2245,-165.573 273.8122,-138.33 295.7555,-121.532"/>
<text text-anchor="middle" x="276.75" y="-147" font-family="Times,serif" font-size="14.00" fill="#000000">0,5</text>
</g>
<!-- 5 -->
<g id="node5" class="node">
<title>5</title>
<ellipse fill="none" stroke="#000000" cx="27" cy="-18" rx="27" ry="18"/>
<text text-anchor="middle" x="27" y="-13.8" font-family="Times,serif" font-size="14.00" fill="#000000">B 3</text>
</g>
<!-- 2&#45;&gt;5 -->
<g id="edge4" class="edge">
<title>2-&gt;5</title>
<path fill="none" stroke="#000000" d="M85.7941,-90.5127C72.7218,-74.3902 52.8376,-49.8663 39.8799,-33.8853"/>
<text text-anchor="middle" x="78.75" y="-58.2" font-family="Times,serif" font-size="14.00" fill="#000000">0,5</text>
</g>
<!-- 6 -->
<g id="node6" class="node">
<title>6</title>
<ellipse fill="none" stroke="#000000" cx="99" cy="-18" rx="27" ry="18"/>
<text text-anchor="middle" x="99" y="-13.8" font-family="Times,serif" font-size="14.00" fill="#000000">B 2</text>
</g>
<!-- 2&#45;&gt;6 -->
<g id="edge5" class="edge">
<title>2-&gt;6</title>
<path fill="none" stroke="#000000" d="M99,-88.4006C99,-73.0587 99,-51.322 99,-36.072"/>
<text text-anchor="middle" x="107.75" y="-58.2" font-family="Times,serif" font-size="14.00" fill="#000000">0,5</text>
</g>
<!-- 7 -->
<g id="node7" class="node">
<title>7</title>
<ellipse fill="none" stroke="#000000" cx="171" cy="-18" rx="27" ry="18"/>
<text text-anchor="middle" x="171" y="-13.8" font-family="Times,serif" font-size="14.00" fill="#000000">B 3</text>
</g>
<!-- 3&#45;&gt;7 -->
<g id="edge6" class="edge">
<title>3-&gt;7</title>
<path fill="none" stroke="#000000" d="M193.3338,-88.83C188.4439,-73.3222 181.4215,-51.0511 176.5622,-35.6402"/>
<text text-anchor="middle" x="196.75" y="-58.2" font-family="Times,serif" font-size="14.00" fill="#000000">0,5</text>
</g>
<!-- 8 -->
<g id="node8" class="node">
<title>8</title>
<ellipse fill="none" stroke="#000000" cx="243" cy="-18" rx="27" ry="18"/>
<text text-anchor="middle" x="243" y="-13.8" font-family="Times,serif" font-size="14.00" fill="#000000">B 2</text>
</g>
<!-- 3&#45;&gt;8 -->
<g id="edge7" class="edge">
<title>3-&gt;8</title>
<path fill="none" stroke="#000000" d="M207.4836,-89.6785C215.2251,-74.0548 226.6122,-51.0736 234.3923,-35.372"/>
<text text-anchor="middle" x="233.75" y="-58.2" font-family="Times,serif" font-size="14.00" fill="#000000">0,5</text>
</g>
<!-- 9 -->
<g id="node9" class="node">
<title>9</title>
<ellipse fill="none" stroke="#000000" cx="315" cy="-18" rx="27" ry="18"/>
<text text-anchor="middle" x="315" y="-13.8" font-family="Times,serif" font-size="14.00" fill="#000000">B 3</text>
</g>
<!-- 4&#45;&gt;9 -->
<g id="edge8" class="edge">
<title>4-&gt;9</title>
<path fill="none" stroke="#000000" d="M315,-88.4006C315,-73.0587 315,-51.322 315,-36.072"/>
<text text-anchor="middle" x="323.75" y="-58.2" font-family="Times,serif" font-size="14.00" fill="#000000">0,5</text>
</g>
<!-- 10 -->
<g id="node10" class="node">
<title>10</title>
<ellipse fill="none" stroke="#000000" cx="387" cy="-18" rx="27" ry="18"/>
<text text-anchor="middle" x="387" y="-13.8" font-family="Times,serif" font-size="14.00" fill="#000000">B 2</text>
</g>
<!-- 4&#45;&gt;10 -->
<g id="edge9" class="edge">
<title>4-&gt;10</title>
<path fill="none" stroke="#000000" d="M328.5426,-90.0974C341.5781,-74.0204 361.1541,-49.8766 374.003,-34.0296"/>
<text text-anchor="middle" x="365.75" y="-58.2" font-family="Times,serif" font-size="14.00" fill="#000000">0,5</text>
</g>
</g>
</svg>